Association of nutrition trajectory and outcomes in pediatric leukemia and lymphoma patients
…
#limit to first year after diagnosis
bmi365 <- filter(no_dup, days < 366)

#remove id's with fewer than 20 measurements; these were unlikely to have received full cancer treatment at CHOP
bmi20 <- bmi365 %>% 
        group_by(id) %>% 
                filter(n() > 19)

#convert days from diagnosis to months
bmi_month <- mutate(bmi20, month = cut(days, breaks=c(0, 30, 60, 90, 120, 150, 180, 210, 240, 270, 300, 330, 366), labels=c(1, 2, 3, 4, 5, 6, 7, 8, 9, 10, 11, 12)))

bmi_month %>% group_by(id, month) %>%
        arrange(desc(month))

## # A tibble: 17,682 x 5
## # Groups:   id, month [3,490]
##       id measurement  days   zscore  month
##    <int>       <int> <int>    <dbl> <fctr>
##  1     1           2   334  0.58372     12
##  2     1           2   362  0.43649     12
##  3     2           2   332  0.64721     12
##  4     2           2   339  0.64491     12
##  5     2           2   341  0.64414     12
##  6     2           2   346  0.54601     12
##  7     2           2   353  0.51229     12
##  8     2           2   356  0.51108     12
##  9     2           2   360  0.40456     12
## 10     3           2   342 -1.37361     12
## # ... with 17,672 more rows
…
